{
    "prepare_queue": {
        "installed": [],
        "uninstalled": []
    },
    "config_munge": {
        "files": {}
    },
    "installed_plugins": {
        "cordova-plugin-console": {
            "PACKAGE_NAME": "Carlos Santos"
        },
        "cordova-plugin-device": {
            "PACKAGE_NAME": "Carlos Santos"
        },
        "cordova-plugin-file": {
            "PACKAGE_NAME": "Carlos Santos"
        },
        "cordova-plugin-file-transfer": {
            "PACKAGE_NAME": "Carlos Santos"
        },
        "cordova-plugin-inappbrowser": {
            "PACKAGE_NAME": "Carlos Santos"
        },
        "cordova-plugin-network-information": {
            "PACKAGE_NAME": "Carlos Santos"
        },
        "cordova-plugin-splashscreen": {
            "PACKAGE_NAME": "Carlos Santos"
        },
        "cordova-plugin-statusbar": {
            "PACKAGE_NAME": "Carlos Santos"
        },
        "cordova-plugin-whitelist": {
            "PACKAGE_NAME": "Carlos Santos"
        },
        "ionic-plugin-keyboard": {
            "PACKAGE_NAME": "Carlos Santos"
        },
        "cordova-plugin-media": {
            "PACKAGE_NAME": "Carlos Santos"
        },
        "cordova-plugin-document-viewer": {
            "PACKAGE_NAME": "Carlos Santos"
        }
    },
    "dependent_plugins": {
        "cordova-plugin-compat": {
            "PACKAGE_NAME": "Carlos Santos"
        }
    }
}